{
    "status": "success",
    "data": {
        "items": [
            {
                "id": "076c3eb1-e748-496a-b980-2f4d749acccb",
                "nama": "Pencarian Kerentanan aplikasi ASPLIP",
                "pse": {
                    "id": "e3fa6866-84e0-4f14-871c-2c2f12cd3b45",
                    "nama": "Pemerintah Kabupaten Boyolali",
                    "akronim": "Pemkab Boyolali",
                    "deskripsi": "Deskripsi mengenai entity ini",
                    "alamat": "Alamat lengkap entity.",
                    "kontak": "081234567890",
                    "avatar": "pse/44dFlgFUttbe8u6QQE3DMsWzgos8M2K2tiUXgCTj.png",
                    "status": null,
                    "created_at": "2025-01-06 06:31:21",
                    "updated_at": "2025-01-06 06:31:21"
                },
                "tgl_mulai": "12 Januari 2024",
                "tgl_akhir": "12 Maret 2025",
                "scope": "Seluruh subdomain di bawah sipps.boy.com",
                "outofscope": "domain sipps.boy.com",
                "outofscopereport": "Est fugiat in nostrud eiusmod cupidatat Lorem eiusmod consectetur quis mollit voluptate. Adipisicing tempor deserunt nisi est tempor occaecat consectetur laborum est reprehenderit velit officia mollit ipsum. Proident magna eu tempor reprehenderit irure ad veniam. Reprehenderit adipisicing id nulla adipisicing pariatur irure eu tempor cillum reprehenderit sit dolor.",
                "keterangan": "Est fugiat in nostrud eiusmod cupidatat Lorem eiusmod consectetur quis mollit voluptate. Adipisicing tempor deserunt nisi est tempor occaecat consectetur laborum est reprehenderit velit officia mollit ipsum. Proident magna eu tempor reprehenderit irure ad veniam. Reprehenderit adipisicing id nulla adipisicing pariatur irure eu tempor cillum reprehenderit sit dolor.",
                "poster": "posterik/AAgHtI1bzGG3Vuzo2kpxix6YY1a4YgXXEfclvi9X.jpg",
                "status": "aktif",
                "jenis": "tertutup",
                "kuota": 10,
                "created_at": "2025-01-06T06:37:31.000000Z",
                "updated_at": "2025-01-06T06:37:31.000000Z"
            },
            {
                "id": "08f9668e-2557-4262-b25d-3576e3952e06",
                "nama": "Pencarian Kerentanan aplikasi ASPLIP112",
                "pse": {
                    "id": "e3fa6866-84e0-4f14-871c-2c2f12cd3b45",
                    "nama": "Pemerintah Kabupaten Boyolali",
                    "akronim": "Pemkab Boyolali",
                    "deskripsi": "Deskripsi mengenai entity ini",
                    "alamat": "Alamat lengkap entity.",
                    "kontak": "081234567890",
                    "avatar": "pse/44dFlgFUttbe8u6QQE3DMsWzgos8M2K2tiUXgCTj.png",
                    "status": null,
                    "created_at": "2025-01-06 06:31:21",
                    "updated_at": "2025-01-06 06:31:21"
                },
                "tgl_mulai": "12 Januari 2024",
                "tgl_akhir": "12 Maret 2025",
                "scope": "Seluruh subdomain di bawah sipps.boy.com",
                "outofscope": "domain sipps.boy.com",
                "outofscopereport": "Est fugiat in nostrud eiusmod cupidatat Lorem eiusmod consectetur quis mollit voluptate. Adipisicing tempor deserunt nisi est tempor occaecat consectetur laborum est reprehenderit velit officia mollit ipsum. Proident magna eu tempor reprehenderit irure ad veniam. Reprehenderit adipisicing id nulla adipisicing pariatur irure eu tempor cillum reprehenderit sit dolor.",
                "keterangan": "Est fugiat in nostrud eiusmod cupidatat Lorem eiusmod consectetur quis mollit voluptate. Adipisicing tempor deserunt nisi est tempor occaecat consectetur laborum est reprehenderit velit officia mollit ipsum. Proident magna eu tempor reprehenderit irure ad veniam. Reprehenderit adipisicing id nulla adipisicing pariatur irure eu tempor cillum reprehenderit sit dolor.",
                "poster": "posterik/FmYEXFVhsPe5OpBsdys9pTMzfFtINOL8LGoOaxIA.jpg",
                "status": "aktif",
                "jenis": "tertutup",
                "kuota": 10,
                "created_at": "2025-01-06T06:37:38.000000Z",
                "updated_at": "2025-01-06T06:37:38.000000Z"
            },
            {
                "id": "110f6abd-c434-4135-ac2a-01627de55e23",
                "nama": "Pencarian Kerentanan aplikasi SIPSS",
                "pse": {
                    "id": "e3fa6866-84e0-4f14-871c-2c2f12cd3b45",
                    "nama": "Pemerintah Kabupaten Boyolali",
                    "akronim": "Pemkab Boyolali",
                    "deskripsi": "Deskripsi mengenai entity ini",
                    "alamat": "Alamat lengkap entity.",
                    "kontak": "081234567890",
                    "avatar": "pse/44dFlgFUttbe8u6QQE3DMsWzgos8M2K2tiUXgCTj.png",
                    "status": null,
                    "created_at": "2025-01-06 06:31:21",
                    "updated_at": "2025-01-06 06:31:21"
                },
                "tgl_mulai": "12 Januari 2024",
                "tgl_akhir": "12 Maret 2025",
                "scope": "Seluruh subdomain di bawah sipps.boy.com",
                "outofscope": "domain sipps.boy.com",
                "outofscopereport": "Ad culpa do excepteur Labore excepteur enim sunt minim in minim commodo nulla velit ullamco aliqua ullamco id exercitation.,",
                "keterangan": "keteranan,",
                "poster": "posterik/6O5VA9muLWdxt2NbmcPPvQHSB6TVwG4ZK7V4FUbD.jpg",
                "status": "aktif",
                "jenis": "tertutup",
                "kuota": 10,
                "created_at": "2025-01-06T06:31:45.000000Z",
                "updated_at": "2025-01-06T06:31:45.000000Z"
            },
            {
                "id": "18cf27d4-a083-4d77-b6f1-9c64c37a84c5",
                "nama": "Pencarian Kerentanan aplikasi ASPLIP112",
                "pse": {
                    "id": "e3fa6866-84e0-4f14-871c-2c2f12cd3b45",
                    "nama": "Pemerintah Kabupaten Boyolali",
                    "akronim": "Pemkab Boyolali",
                    "deskripsi": "Deskripsi mengenai entity ini",
                    "alamat": "Alamat lengkap entity.",
                    "kontak": "081234567890",
                    "avatar": "pse/44dFlgFUttbe8u6QQE3DMsWzgos8M2K2tiUXgCTj.png",
                    "status": null,
                    "created_at": "2025-01-06 06:31:21",
                    "updated_at": "2025-01-06 06:31:21"
                },
                "tgl_mulai": "12 Januari 2024",
                "tgl_akhir": "12 Maret 2025",
                "scope": "Seluruh subdomain di bawah sipps.boy.com",
                "outofscope": "domain sipps.boy.com",
                "outofscopereport": "Est fugiat in nostrud eiusmod cupidatat Lorem eiusmod consectetur quis mollit voluptate. Adipisicing tempor deserunt nisi est tempor occaecat consectetur laborum est reprehenderit velit officia mollit ipsum. Proident magna eu tempor reprehenderit irure ad veniam. Reprehenderit adipisicing id nulla adipisicing pariatur irure eu tempor cillum reprehenderit sit dolor.",
                "keterangan": "Est fugiat in nostrud eiusmod cupidatat Lorem eiusmod consectetur quis mollit voluptate. Adipisicing tempor deserunt nisi est tempor occaecat consectetur laborum est reprehenderit velit officia mollit ipsum. Proident magna eu tempor reprehenderit irure ad veniam. Reprehenderit adipisicing id nulla adipisicing pariatur irure eu tempor cillum reprehenderit sit dolor.",
                "poster": "posterik/klxyY7GAGR4DesVDQoA0b9eHE1T82XeDaF7Wui82.jpg",
                "status": "aktif",
                "jenis": "tertutup",
                "kuota": 10,
                "created_at": "2025-01-06T06:37:40.000000Z",
                "updated_at": "2025-01-06T06:37:40.000000Z"
            },
            {
                "id": "27545f86-e220-455a-9156-2022afe56862",
                "nama": "Pencarian Kerentanan aplikasi ABSENBOY",
                "pse": {
                    "id": "e3fa6866-84e0-4f14-871c-2c2f12cd3b45",
                    "nama": "Pemerintah Kabupaten Boyolali",
                    "akronim": "Pemkab Boyolali",
                    "deskripsi": "Deskripsi mengenai entity ini",
                    "alamat": "Alamat lengkap entity.",
                    "kontak": "081234567890",
                    "avatar": "pse/44dFlgFUttbe8u6QQE3DMsWzgos8M2K2tiUXgCTj.png",
                    "status": null,
                    "created_at": "2025-01-06 06:31:21",
                    "updated_at": "2025-01-06 06:31:21"
                },
                "tgl_mulai": "12 Januari 2024",
                "tgl_akhir": "12 Maret 2025",
                "scope": "Seluruh subdomain di bawah sipps.boy.com",
                "outofscope": "domain sipps.boy.com",
                "outofscopereport": "Est fugiat in nostrud eiusmod cupidatat Lorem eiusmod consectetur quis mollit voluptate. Adipisicing tempor deserunt nisi est tempor occaecat consectetur laborum est reprehenderit velit officia mollit ipsum. Proident magna eu tempor reprehenderit irure ad veniam. Reprehenderit adipisicing id nulla adipisicing pariatur irure eu tempor cillum reprehenderit sit dolor.",
                "keterangan": "Est fugiat in nostrud eiusmod cupidatat Lorem eiusmod consectetur quis mollit voluptate. Adipisicing tempor deserunt nisi est tempor occaecat consectetur laborum est reprehenderit velit officia mollit ipsum. Proident magna eu tempor reprehenderit irure ad veniam. Reprehenderit adipisicing id nulla adipisicing pariatur irure eu tempor cillum reprehenderit sit dolor.",
                "poster": "posterik/LoyMYCzYkSyhNv7ReZYre7aK9OFUZ8U6wQou5ELV.jpg",
                "status": "aktif",
                "jenis": "terbuka",
                "kuota": 10,
                "created_at": "2025-01-06T06:37:59.000000Z",
                "updated_at": "2025-01-06T06:37:59.000000Z"
            },
            {
                "id": "29f5baf4-440c-4fda-911e-27a0fa0df6fc",
                "nama": "Pencarian Kerentanan aplikasi ABSENBOY",
                "pse": {
                    "id": "e3fa6866-84e0-4f14-871c-2c2f12cd3b45",
                    "nama": "Pemerintah Kabupaten Boyolali",
                    "akronim": "Pemkab Boyolali",
                    "deskripsi": "Deskripsi mengenai entity ini",
                    "alamat": "Alamat lengkap entity.",
                    "kontak": "081234567890",
                    "avatar": "pse/44dFlgFUttbe8u6QQE3DMsWzgos8M2K2tiUXgCTj.png",
                    "status": null,
                    "created_at": "2025-01-06 06:31:21",
                    "updated_at": "2025-01-06 06:31:21"
                },
                "tgl_mulai": "12 Januari 2024",
                "tgl_akhir": "12 Maret 2025",
                "scope": "Seluruh subdomain di bawah sipps.boy.com",
                "outofscope": "domain sipps.boy.com",
                "outofscopereport": "Est fugiat in nostrud eiusmod cupidatat Lorem eiusmod consectetur quis mollit voluptate. Adipisicing tempor deserunt nisi est tempor occaecat consectetur laborum est reprehenderit velit officia mollit ipsum. Proident magna eu tempor reprehenderit irure ad veniam. Reprehenderit adipisicing id nulla adipisicing pariatur irure eu tempor cillum reprehenderit sit dolor.",
                "keterangan": "Est fugiat in nostrud eiusmod cupidatat Lorem eiusmod consectetur quis mollit voluptate. Adipisicing tempor deserunt nisi est tempor occaecat consectetur laborum est reprehenderit velit officia mollit ipsum. Proident magna eu tempor reprehenderit irure ad veniam. Reprehenderit adipisicing id nulla adipisicing pariatur irure eu tempor cillum reprehenderit sit dolor.",
                "poster": "posterik/sHzVUGINGor0jcJ2Glo9qG163UkiW4Dkkul9rRAK.jpg",
                "status": "aktif",
                "jenis": "terbuka",
                "kuota": 10,
                "created_at": "2025-01-06T06:38:01.000000Z",
                "updated_at": "2025-01-06T06:38:01.000000Z"
            },
            {
                "id": "4013212b-79b6-4180-ae21-531ce10126b6",
                "nama": "Pencarian Kerentanan aplikasi ASPLIP",
                "pse": {
                    "id": "e3fa6866-84e0-4f14-871c-2c2f12cd3b45",
                    "nama": "Pemerintah Kabupaten Boyolali",
                    "akronim": "Pemkab Boyolali",
                    "deskripsi": "Deskripsi mengenai entity ini",
                    "alamat": "Alamat lengkap entity.",
                    "kontak": "081234567890",
                    "avatar": "pse/44dFlgFUttbe8u6QQE3DMsWzgos8M2K2tiUXgCTj.png",
                    "status": null,
                    "created_at": "2025-01-06 06:31:21",
                    "updated_at": "2025-01-06 06:31:21"
                },
                "tgl_mulai": "12 Januari 2024",
                "tgl_akhir": "12 Maret 2025",
                "scope": "Seluruh subdomain di bawah sipps.boy.com",
                "outofscope": "domain sipps.boy.com",
                "outofscopereport": "Est fugiat in nostrud eiusmod cupidatat Lorem eiusmod consectetur quis mollit voluptate. Adipisicing tempor deserunt nisi est tempor occaecat consectetur laborum est reprehenderit velit officia mollit ipsum. Proident magna eu tempor reprehenderit irure ad veniam. Reprehenderit adipisicing id nulla adipisicing pariatur irure eu tempor cillum reprehenderit sit dolor.",
                "keterangan": "Est fugiat in nostrud eiusmod cupidatat Lorem eiusmod consectetur quis mollit voluptate. Adipisicing tempor deserunt nisi est tempor occaecat consectetur laborum est reprehenderit velit officia mollit ipsum. Proident magna eu tempor reprehenderit irure ad veniam. Reprehenderit adipisicing id nulla adipisicing pariatur irure eu tempor cillum reprehenderit sit dolor.",
                "poster": "posterik/ds4nsuRdPzAqJe2rw3NeONH6d9dDICeo4AlBRg5u.jpg",
                "status": "aktif",
                "jenis": "tertutup",
                "kuota": 10,
                "created_at": "2025-01-06T06:37:33.000000Z",
                "updated_at": "2025-01-06T06:37:33.000000Z"
            },
            {
                "id": "4423a44b-6d93-4c8d-b035-1654ba23e6ba",
                "nama": "Pencarian Kerentanan aplikasi ABSENBOY",
                "pse": {
                    "id": "e3fa6866-84e0-4f14-871c-2c2f12cd3b45",
                    "nama": "Pemerintah Kabupaten Boyolali",
                    "akronim": "Pemkab Boyolali",
                    "deskripsi": "Deskripsi mengenai entity ini",
                    "alamat": "Alamat lengkap entity.",
                    "kontak": "081234567890",
                    "avatar": "pse/44dFlgFUttbe8u6QQE3DMsWzgos8M2K2tiUXgCTj.png",
                    "status": null,
                    "created_at": "2025-01-06 06:31:21",
                    "updated_at": "2025-01-06 06:31:21"
                },
                "tgl_mulai": "12 Januari 2024",
                "tgl_akhir": "12 Maret 2025",
                "scope": "Seluruh subdomain di bawah sipps.boy.com",
                "outofscope": "domain sipps.boy.com",
                "outofscopereport": "Est fugiat in nostrud eiusmod cupidatat Lorem eiusmod consectetur quis mollit voluptate. Adipisicing tempor deserunt nisi est tempor occaecat consectetur laborum est reprehenderit velit officia mollit ipsum. Proident magna eu tempor reprehenderit irure ad veniam. Reprehenderit adipisicing id nulla adipisicing pariatur irure eu tempor cillum reprehenderit sit dolor.",
                "keterangan": "Est fugiat in nostrud eiusmod cupidatat Lorem eiusmod consectetur quis mollit voluptate. Adipisicing tempor deserunt nisi est tempor occaecat consectetur laborum est reprehenderit velit officia mollit ipsum. Proident magna eu tempor reprehenderit irure ad veniam. Reprehenderit adipisicing id nulla adipisicing pariatur irure eu tempor cillum reprehenderit sit dolor.",
                "poster": "posterik/tFQ89GvYljBc7KmZzkyUkiC5FQv4eXGzCFFj5hZq.jpg",
                "status": "aktif",
                "jenis": "terbuka",
                "kuota": 10,
                "created_at": "2025-01-06T06:38:00.000000Z",
                "updated_at": "2025-01-06T06:38:00.000000Z"
            },
            {
                "id": "47fe5af4-2fdd-40a1-ae0b-3a6cb7e0305f",
                "nama": "Pencarian Kerentanan aplikasi SIMPEGBOY",
                "pse": {
                    "id": "e3fa6866-84e0-4f14-871c-2c2f12cd3b45",
                    "nama": "Pemerintah Kabupaten Boyolali",
                    "akronim": "Pemkab Boyolali",
                    "deskripsi": "Deskripsi mengenai entity ini",
                    "alamat": "Alamat lengkap entity.",
                    "kontak": "081234567890",
                    "avatar": "pse/44dFlgFUttbe8u6QQE3DMsWzgos8M2K2tiUXgCTj.png",
                    "status": null,
                    "created_at": "2025-01-06 06:31:21",
                    "updated_at": "2025-01-06 06:31:21"
                },
                "tgl_mulai": "12 Januari 2024",
                "tgl_akhir": "12 Maret 2025",
                "scope": "Seluruh subdomain di bawah sipps.boy.com",
                "outofscope": "domain sipps.boy.com",
                "outofscopereport": "Est fugiat in nostrud eiusmod cupidatat Lorem eiusmod consectetur quis mollit voluptate. Adipisicing tempor deserunt nisi est tempor occaecat consectetur laborum est reprehenderit velit officia mollit ipsum. Proident magna eu tempor reprehenderit irure ad veniam. Reprehenderit adipisicing id nulla adipisicing pariatur irure eu tempor cillum reprehenderit sit dolor.",
                "keterangan": "Est fugiat in nostrud eiusmod cupidatat Lorem eiusmod consectetur quis mollit voluptate. Adipisicing tempor deserunt nisi est tempor occaecat consectetur laborum est reprehenderit velit officia mollit ipsum. Proident magna eu tempor reprehenderit irure ad veniam. Reprehenderit adipisicing id nulla adipisicing pariatur irure eu tempor cillum reprehenderit sit dolor.",
                "poster": "posterik/WoS1kk4yHNJoGpn00RSjWHOY3pOcYfYHxSLgpGJT.jpg",
                "status": "aktif",
                "jenis": "tertutup",
                "kuota": 10,
                "created_at": "2025-01-06T06:37:16.000000Z",
                "updated_at": "2025-01-06T06:37:16.000000Z"
            },
            {
                "id": "4d58751f-a649-4a14-b3c4-ac4e872c0032",
                "nama": "Pencarian Kerentanan aplikasi ABSENBOY",
                "pse": {
                    "id": "e3fa6866-84e0-4f14-871c-2c2f12cd3b45",
                    "nama": "Pemerintah Kabupaten Boyolali",
                    "akronim": "Pemkab Boyolali",
                    "deskripsi": "Deskripsi mengenai entity ini",
                    "alamat": "Alamat lengkap entity.",
                    "kontak": "081234567890",
                    "avatar": "pse/44dFlgFUttbe8u6QQE3DMsWzgos8M2K2tiUXgCTj.png",
                    "status": null,
                    "created_at": "2025-01-06 06:31:21",
                    "updated_at": "2025-01-06 06:31:21"
                },
                "tgl_mulai": "12 Januari 2024",
                "tgl_akhir": "12 Maret 2025",
                "scope": "Seluruh subdomain di bawah sipps.boy.com",
                "outofscope": "domain sipps.boy.com",
                "outofscopereport": "Est fugiat in nostrud eiusmod cupidatat Lorem eiusmod consectetur quis mollit voluptate. Adipisicing tempor deserunt nisi est tempor occaecat consectetur laborum est reprehenderit velit officia mollit ipsum. Proident magna eu tempor reprehenderit irure ad veniam. Reprehenderit adipisicing id nulla adipisicing pariatur irure eu tempor cillum reprehenderit sit dolor.",
                "keterangan": "Est fugiat in nostrud eiusmod cupidatat Lorem eiusmod consectetur quis mollit voluptate. Adipisicing tempor deserunt nisi est tempor occaecat consectetur laborum est reprehenderit velit officia mollit ipsum. Proident magna eu tempor reprehenderit irure ad veniam. Reprehenderit adipisicing id nulla adipisicing pariatur irure eu tempor cillum reprehenderit sit dolor.",
                "poster": "posterik/AuPIW0jE9o4xjvPiRzoUVeHt1sbajoY2GwbeAguF.jpg",
                "status": "aktif",
                "jenis": "terbuka",
                "kuota": 10,
                "created_at": "2025-01-06T06:38:00.000000Z",
                "updated_at": "2025-01-06T06:38:00.000000Z"
            }
        ],
        "meta": {
            "current_page": 1,
            "last_page": 3,
            "per_page": 10,
            "total": 25,
            "next_page_url": "http://localhost:8899/api/programik?page=2",
            "prev_page_url": null
        }
    }
}